
{
	"texture_data": {
        "armin_spawn_egg": {
            "textures": ["textures/items/armin"]
        },
        "eren_spawn_egg": {
            "textures": ["textures/items/eren"]
        },
        "peanut": {
            "textures": ["textures/items/peanut"]
        },
        "spiderman_spawn_egg": {
			"textures": ["textures/items/spiderman"]
        },
        "yor_spawn_egg": {
			"textures": ["textures/items/yor"]
        }
	}
}