{
    "format_version": "1.16.100",
    "minecraft:entity": {
        "description": {
            "identifier": "kelly_minecraft:anya",
            "is_spawnable": true,
            "is_summonable": true,
            "is_experimental": false
        },
        "component_groups": {
            "kelly_minecraft:tame": {
                "minecraft:is_tamed": {},
                "minecraft:health": {
                    "value": 20,
                    "max": 20
                },
                "minecraft:behavior.owner_hurt_by_target": {
                    "priority": 1
                },
                "minecraft:behavior.owner_hurt_target": {
                    "priority": 2
                },
                "minecraft:behavior.follow_owner": {
                    "priority": 9,
                    "speed_multiplier": 1.0,
                    "start_distance": 10,
                    "stop_distance": 2
                }
            }
        },
        "components": {
            "minecraft:type_family": {
                "family": [ "npc", "mob" ]
            },
            "minecraft:npc": {
                "npc_data": {
                    "portrait_offsets": {
                        "translate": [-7, 50, 0],
                        "scale": [1.75, 1.75, 1.75]
                    },
                    "picker_offsets": {
                        "translate": [0, 20, 0],
                        "scale": [1.7, 1.7, 1.7]
                    }
                }
            },
            "minecraft:physics": {
                "has_gravity": true,
                "has_collision": true
            },
            "minecraft:pushable": {
                "is_pushable": false
            },
            "minecraft:push_through": {
                "value": 1
            },
            "minecraft:movement": {
                "value": 0.25
            },
            "minecraft:movement.basic": {},
            "minecraft:jump.static": {},
            "minecraft:navigation.walk": {
                "avoid_water": true
            },
            "minecraft:behavior.random_stroll": {
                "priority": 3,
                "speed_multiplier": 0.8
            },
            "minecraft:behavior.hurt_by_target": {
                "priority": 4
            },
            "minecraft:behavior.equip_item": {
                "priority": 5
            },
            "minecraft:behavior.look_at_player": {
                "priority": 6,
                "target_distance": 6.0,
                "probability": 0.02
            },
            "minecraft:behavior.avoid_mob_type": {
                "priority": 7,
                "entity_types": [
                    {
                        "filters": {
                            "test": "is_family",
                            "subject": "other",
                            "value": "creeper"
                        },
                        "max_dist": 24,
                        "walk_speed_multiplier": 1.5,
                        "sprint_speed_multiplier": 1.5
                    }
                ],
                "probability_per_strength": 0.14
            },
            "minecraft:behavior.melee_attack": {
                "priority": 8
            },
            "minecraft:nameable": {
                "always_show": true
            },
            "minecraft:attack": {
                "damage": 3
            },
            "minecraft:equip_item": {},
            "minecraft:equipment": {
                "table": "loot_tables/entities/kelly_minecraft_gear.json"
            },
            "minecraft:interact": {
                "interactions": [
                    {
                        "on_interact": {
                            "filters": {
                                "any_of": [
                                    {
                                        "test": "has_equipment",
                                        "subject": "other",
                                        "domain": "hand",
                                        "value": "kelly_minecraft:anya_spawn_egg"
                                    }
                                ],
                                "all_of": [
                                    {
                                        "test": "is_family",
                                        "subject": "other",
                                        "value": "player"
                                    }
                                ]
                            },
                            "event": "anya_peanut",
                            "target": "self"
                        },
                        "interact_text": "action.interact.anya"
                    }
                ]
            }
        },
        "events": {
            "anya_peanut": {
                "add": {
                    "component_groups": ["kelly_minecraft:tame"]
                }
            }
        }
    }
}
