{
    "format_version":"1.17",
    "minecraft:npc_dialogue":{
        "scenes":[
            {
                "scene_tag":"anya_hello",
                "npc_name":"Anya Forger",
                "text":"Hello?"
            }
        ]
    }
}